<?xml version="1.0" encoding="UTF-8"?>
<!DOCTYPE svg PUBLIC "-//W3C//DTD SVG 1.1//EN" "http://www.w3.org/Graphics/SVG/1.1/DTD/svg11.dtd">
<svg width="184mm" height="100mm" viewBox="0 0 18400 10000" version="1.1" xmlns="http://www.w3.org/2000/svg" xmlns:xlink="http://www.w3.org/1999/xlink" stroke-width="28.222" stroke-linejoin="round" xml:space="preserve">
 <path fill="rgb(255,255,255)" stroke="none" d="M 9173,9881 L -13,9881 -13,-13 18359,-13 18359,9881 9173,9881 Z"/>
 <path fill="none" stroke="rgb(179,179,179)" stroke-linejoin="round" d="M 6646,8713 L 2130,8713 2130,1873 11162,1873 11162,8713 6646,8713 Z"/>
 <path fill="none" stroke="rgb(179,179,179)" stroke-linejoin="round" d="M 11162,8713 L 2130,8713"/>
 <path fill="none" stroke="rgb(179,179,179)" stroke-linejoin="round" d="M 11162,7857 L 2130,7857"/>
 <path fill="none" stroke="rgb(179,179,179)" stroke-linejoin="round" d="M 11162,7002 L 2130,7002"/>
 <path fill="none" stroke="rgb(179,179,179)" stroke-linejoin="round" d="M 11162,6147 L 2130,6147"/>
 <path fill="none" stroke="rgb(179,179,179)" stroke-linejoin="round" d="M 11162,5292 L 2130,5292"/>
 <path fill="none" stroke="rgb(179,179,179)" stroke-linejoin="round" d="M 11162,4437 L 2130,4437"/>
 <path fill="none" stroke="rgb(179,179,179)" stroke-linejoin="round" d="M 11162,3582 L 2130,3582"/>
 <path fill="none" stroke="rgb(179,179,179)" stroke-linejoin="round" d="M 11162,2727 L 2130,2727"/>
 <path fill="none" stroke="rgb(179,179,179)" stroke-linejoin="round" d="M 11162,1872 L 2130,1872"/>
 <path fill="none" stroke="rgb(179,179,179)" stroke-linejoin="round" d="M 2130,8860 L 2130,8565"/>
 <path fill="none" stroke="rgb(179,179,179)" stroke-linejoin="round" d="M 2130,8860 L 2130,8565"/>
 <path fill="none" stroke="rgb(179,179,179)" stroke-linejoin="round" d="M 3420,8860 L 3420,8565"/>
 <path fill="none" stroke="rgb(179,179,179)" stroke-linejoin="round" d="M 3420,8860 L 3420,8565"/>
 <path fill="none" stroke="rgb(179,179,179)" stroke-linejoin="round" d="M 4710,8860 L 4710,8565"/>
 <path fill="none" stroke="rgb(179,179,179)" stroke-linejoin="round" d="M 4710,8860 L 4710,8565"/>
 <path fill="none" stroke="rgb(179,179,179)" stroke-linejoin="round" d="M 6001,8860 L 6001,8565"/>
 <path fill="none" stroke="rgb(179,179,179)" stroke-linejoin="round" d="M 6001,8860 L 6001,8565"/>
 <path fill="none" stroke="rgb(179,179,179)" stroke-linejoin="round" d="M 7291,8860 L 7291,8565"/>
 <path fill="none" stroke="rgb(179,179,179)" stroke-linejoin="round" d="M 7291,8860 L 7291,8565"/>
 <path fill="none" stroke="rgb(179,179,179)" stroke-linejoin="round" d="M 8582,8860 L 8582,8565"/>
 <path fill="none" stroke="rgb(179,179,179)" stroke-linejoin="round" d="M 8582,8860 L 8582,8565"/>
 <path fill="none" stroke="rgb(179,179,179)" stroke-linejoin="round" d="M 9871,8860 L 9871,8565"/>
 <path fill="none" stroke="rgb(179,179,179)" stroke-linejoin="round" d="M 9871,8860 L 9871,8565"/>
 <path fill="none" stroke="rgb(179,179,179)" stroke-linejoin="round" d="M 11162,8860 L 11162,8565"/>
 <path fill="none" stroke="rgb(179,179,179)" stroke-linejoin="round" d="M 11162,8860 L 11162,8565"/>
 <path fill="none" stroke="rgb(179,179,179)" stroke-linejoin="round" d="M 2775,8713 L 2775,8602"/>
 <path fill="none" stroke="rgb(179,179,179)" stroke-linejoin="round" d="M 2775,8713 L 2775,8602"/>
 <path fill="none" stroke="rgb(179,179,179)" stroke-linejoin="round" d="M 4065,8713 L 4065,8602"/>
 <path fill="none" stroke="rgb(179,179,179)" stroke-linejoin="round" d="M 4065,8713 L 4065,8602"/>
 <path fill="none" stroke="rgb(179,179,179)" stroke-linejoin="round" d="M 5356,8713 L 5356,8602"/>
 <path fill="none" stroke="rgb(179,179,179)" stroke-linejoin="round" d="M 5356,8713 L 5356,8602"/>
 <path fill="none" stroke="rgb(179,179,179)" stroke-linejoin="round" d="M 6646,8713 L 6646,8602"/>
 <path fill="none" stroke="rgb(179,179,179)" stroke-linejoin="round" d="M 6646,8713 L 6646,8602"/>
 <path fill="none" stroke="rgb(179,179,179)" stroke-linejoin="round" d="M 7936,8713 L 7936,8602"/>
 <path fill="none" stroke="rgb(179,179,179)" stroke-linejoin="round" d="M 7936,8713 L 7936,8602"/>
 <path fill="none" stroke="rgb(179,179,179)" stroke-linejoin="round" d="M 9226,8713 L 9226,8602"/>
 <path fill="none" stroke="rgb(179,179,179)" stroke-linejoin="round" d="M 9226,8713 L 9226,8602"/>
 <path fill="none" stroke="rgb(179,179,179)" stroke-linejoin="round" d="M 10516,8713 L 10516,8602"/>
 <path fill="none" stroke="rgb(179,179,179)" stroke-linejoin="round" d="M 10516,8713 L 10516,8602"/>
 <path fill="none" stroke="rgb(179,179,179)" stroke-linejoin="round" d="M 2130,8713 L 11162,8713"/>
 <path fill="none" stroke="rgb(179,179,179)" stroke-linejoin="round" d="M 1980,8713 L 2130,8713"/>
 <path fill="none" stroke="rgb(179,179,179)" stroke-linejoin="round" d="M 1980,8713 L 2130,8713"/>
 <path fill="none" stroke="rgb(179,179,179)" stroke-linejoin="round" d="M 1980,7857 L 2130,7857"/>
 <path fill="none" stroke="rgb(179,179,179)" stroke-linejoin="round" d="M 1980,7857 L 2130,7857"/>
 <path fill="none" stroke="rgb(179,179,179)" stroke-linejoin="round" d="M 1980,7002 L 2130,7002"/>
 <path fill="none" stroke="rgb(179,179,179)" stroke-linejoin="round" d="M 1980,7002 L 2130,7002"/>
 <path fill="none" stroke="rgb(179,179,179)" stroke-linejoin="round" d="M 1980,6147 L 2130,6147"/>
 <path fill="none" stroke="rgb(179,179,179)" stroke-linejoin="round" d="M 1980,6147 L 2130,6147"/>
 <path fill="none" stroke="rgb(179,179,179)" stroke-linejoin="round" d="M 1980,5292 L 2130,5292"/>
 <path fill="none" stroke="rgb(179,179,179)" stroke-linejoin="round" d="M 1980,5292 L 2130,5292"/>
 <path fill="none" stroke="rgb(179,179,179)" stroke-linejoin="round" d="M 1980,4437 L 2130,4437"/>
 <path fill="none" stroke="rgb(179,179,179)" stroke-linejoin="round" d="M 1980,4437 L 2130,4437"/>
 <path fill="none" stroke="rgb(179,179,179)" stroke-linejoin="round" d="M 1980,3582 L 2130,3582"/>
 <path fill="none" stroke="rgb(179,179,179)" stroke-linejoin="round" d="M 1980,3582 L 2130,3582"/>
 <path fill="none" stroke="rgb(179,179,179)" stroke-linejoin="round" d="M 1980,2727 L 2130,2727"/>
 <path fill="none" stroke="rgb(179,179,179)" stroke-linejoin="round" d="M 1980,2727 L 2130,2727"/>
 <path fill="none" stroke="rgb(179,179,179)" stroke-linejoin="round" d="M 1980,1872 L 2130,1872"/>
 <path fill="none" stroke="rgb(179,179,179)" stroke-linejoin="round" d="M 1980,1872 L 2130,1872"/>
 <path fill="none" stroke="rgb(179,179,179)" stroke-linejoin="round" d="M 2018,8285 L 2130,8285"/>
 <path fill="none" stroke="rgb(179,179,179)" stroke-linejoin="round" d="M 2018,8285 L 2130,8285"/>
 <path fill="none" stroke="rgb(179,179,179)" stroke-linejoin="round" d="M 2018,7430 L 2130,7430"/>
 <path fill="none" stroke="rgb(179,179,179)" stroke-linejoin="round" d="M 2018,7430 L 2130,7430"/>
 <path fill="none" stroke="rgb(179,179,179)" stroke-linejoin="round" d="M 2018,6575 L 2130,6575"/>
 <path fill="none" stroke="rgb(179,179,179)" stroke-linejoin="round" d="M 2018,6575 L 2130,6575"/>
 <path fill="none" stroke="rgb(179,179,179)" stroke-linejoin="round" d="M 2018,5720 L 2130,5720"/>
 <path fill="none" stroke="rgb(179,179,179)" stroke-linejoin="round" d="M 2018,5720 L 2130,5720"/>
 <path fill="none" stroke="rgb(179,179,179)" stroke-linejoin="round" d="M 2018,4864 L 2130,4864"/>
 <path fill="none" stroke="rgb(179,179,179)" stroke-linejoin="round" d="M 2018,4864 L 2130,4864"/>
 <path fill="none" stroke="rgb(179,179,179)" stroke-linejoin="round" d="M 2018,4009 L 2130,4009"/>
 <path fill="none" stroke="rgb(179,179,179)" stroke-linejoin="round" d="M 2018,4009 L 2130,4009"/>
 <path fill="none" stroke="rgb(179,179,179)" stroke-linejoin="round" d="M 2018,3154 L 2130,3154"/>
 <path fill="none" stroke="rgb(179,179,179)" stroke-linejoin="round" d="M 2018,3154 L 2130,3154"/>
 <path fill="none" stroke="rgb(179,179,179)" stroke-linejoin="round" d="M 2018,2299 L 2130,2299"/>
 <path fill="none" stroke="rgb(179,179,179)" stroke-linejoin="round" d="M 2018,2299 L 2130,2299"/>
 <path fill="none" stroke="rgb(179,179,179)" stroke-linejoin="round" d="M 2130,8713 L 2130,1872"/>
 <path fill="none" stroke="rgb(255,128,0)" stroke-width="80" stroke-linejoin="round" d="M 2130,7857 L 3420,7173 4710,6549 6001,6249 7291,6087 8582,5625 9871,5720 11162,5583"/>
 <path fill="rgb(255,128,0)" stroke="none" d="M 2080,7807 L 2080,7906 2180,7906 2180,7807 2080,7807 Z"/>
 <path fill="none" stroke="rgb(255,128,0)" stroke-linejoin="round" d="M 2080,7807 L 2080,7906 2180,7906 2180,7807 2080,7807 Z"/>
 <path fill="rgb(255,128,0)" stroke="none" d="M 3370,7124 L 3370,7223 3470,7223 3470,7124 3370,7124 Z"/>
 <path fill="none" stroke="rgb(255,128,0)" stroke-linejoin="round" d="M 3370,7124 L 3370,7223 3470,7223 3470,7124 3370,7124 Z"/>
 <path fill="rgb(255,128,0)" stroke="none" d="M 4660,6500 L 4660,6598 4760,6598 4760,6500 4660,6500 Z"/>
 <path fill="none" stroke="rgb(255,128,0)" stroke-linejoin="round" d="M 4660,6500 L 4660,6598 4760,6598 4760,6500 4660,6500 Z"/>
 <path fill="rgb(255,128,0)" stroke="none" d="M 5951,6200 L 5951,6299 6051,6299 6051,6200 5951,6200 Z"/>
 <path fill="none" stroke="rgb(255,128,0)" stroke-linejoin="round" d="M 5951,6200 L 5951,6299 6051,6299 6051,6200 5951,6200 Z"/>
 <path fill="rgb(255,128,0)" stroke="none" d="M 7241,6037 L 7241,6136 7341,6136 7341,6037 7241,6037 Z"/>
 <path fill="none" stroke="rgb(255,128,0)" stroke-linejoin="round" d="M 7241,6037 L 7241,6136 7341,6136 7341,6037 7241,6037 Z"/>
 <path fill="rgb(255,128,0)" stroke="none" d="M 8532,5576 L 8532,5675 8632,5675 8632,5576 8532,5576 Z"/>
 <path fill="none" stroke="rgb(255,128,0)" stroke-linejoin="round" d="M 8532,5576 L 8532,5675 8632,5675 8632,5576 8532,5576 Z"/>
 <path fill="rgb(255,128,0)" stroke="none" d="M 9821,5671 L 9821,5769 9921,5769 9921,5671 9821,5671 Z"/>
 <path fill="none" stroke="rgb(255,128,0)" stroke-linejoin="round" d="M 9821,5671 L 9821,5769 9921,5769 9921,5671 9821,5671 Z"/>
 <path fill="rgb(255,128,0)" stroke="none" d="M 11112,5533 L 11112,5632 11212,5632 11212,5533 11112,5533 Z"/>
 <path fill="none" stroke="rgb(255,128,0)" stroke-linejoin="round" d="M 11112,5533 L 11112,5632 11212,5632 11212,5533 11112,5533 Z"/>
 <path fill="none" stroke="rgb(255,66,14)" stroke-width="80" stroke-linejoin="round" d="M 2130,7857 L 3420,7173 4710,6412 6001,6061 7291,5951 8582,5224 9871,5369 11162,5215"/>
 <path fill="rgb(255,66,14)" stroke="none" d="M 2005,7857 L 2130,7980 2255,7857 2130,7733 2005,7857 Z"/>
 <path fill="none" stroke="rgb(255,66,14)" stroke-linejoin="round" d="M 2005,7857 L 2130,7980 2255,7857 2130,7733 2005,7857 Z"/>
 <path fill="rgb(255,66,14)" stroke="none" d="M 3295,7173 L 3420,7297 3545,7173 3420,7050 3295,7173 Z"/>
 <path fill="none" stroke="rgb(255,66,14)" stroke-linejoin="round" d="M 3295,7173 L 3420,7297 3545,7173 3420,7050 3295,7173 Z"/>
 <path fill="rgb(255,66,14)" stroke="none" d="M 4585,6412 L 4710,6535 4835,6412 4710,6289 4585,6412 Z"/>
 <path fill="none" stroke="rgb(255,66,14)" stroke-linejoin="round" d="M 4585,6412 L 4710,6535 4835,6412 4710,6289 4585,6412 Z"/>
 <path fill="rgb(255,66,14)" stroke="none" d="M 5876,6061 L 6001,6184 6126,6061 6001,5938 5876,6061 Z"/>
 <path fill="none" stroke="rgb(255,66,14)" stroke-linejoin="round" d="M 5876,6061 L 6001,6184 6126,6061 6001,5938 5876,6061 Z"/>
 <path fill="rgb(255,66,14)" stroke="none" d="M 7166,5951 L 7291,6074 7416,5951 7291,5827 7166,5951 Z"/>
 <path fill="none" stroke="rgb(255,66,14)" stroke-linejoin="round" d="M 7166,5951 L 7291,6074 7416,5951 7291,5827 7166,5951 Z"/>
 <path fill="rgb(255,66,14)" stroke="none" d="M 8457,5224 L 8582,5347 8707,5224 8582,5101 8457,5224 Z"/>
 <path fill="none" stroke="rgb(255,66,14)" stroke-linejoin="round" d="M 8457,5224 L 8582,5347 8707,5224 8582,5101 8457,5224 Z"/>
 <path fill="rgb(255,66,14)" stroke="none" d="M 9746,5369 L 9871,5492 9996,5369 9871,5246 9746,5369 Z"/>
 <path fill="none" stroke="rgb(255,66,14)" stroke-linejoin="round" d="M 9746,5369 L 9871,5492 9996,5369 9871,5246 9746,5369 Z"/>
 <path fill="rgb(255,66,14)" stroke="none" d="M 11037,5215 L 11162,5338 11287,5215 11162,5092 11037,5215 Z"/>
 <path fill="none" stroke="rgb(255,66,14)" stroke-linejoin="round" d="M 11037,5215 L 11162,5338 11287,5215 11162,5092 11037,5215 Z"/>
 <path fill="none" stroke="rgb(255,211,32)" stroke-width="80" stroke-linejoin="round" d="M 2130,7857 L 3420,7113 4710,6600 6001,6044 7291,5984 8582,5326 9871,5386 11162,5420"/>
 <path fill="rgb(255,211,32)" stroke="none" d="M 2005,7733 L 2130,7980 2255,7733 2005,7733 Z"/>
 <path fill="none" stroke="rgb(255,211,32)" stroke-linejoin="round" d="M 2005,7733 L 2130,7980 2255,7733 2005,7733 Z"/>
 <path fill="rgb(255,211,32)" stroke="none" d="M 3295,6990 L 3420,7236 3545,6990 3295,6990 Z"/>
 <path fill="none" stroke="rgb(255,211,32)" stroke-linejoin="round" d="M 3295,6990 L 3420,7236 3545,6990 3295,6990 Z"/>
 <path fill="rgb(255,211,32)" stroke="none" d="M 4585,6477 L 4710,6724 4835,6477 4585,6477 Z"/>
 <path fill="none" stroke="rgb(255,211,32)" stroke-linejoin="round" d="M 4585,6477 L 4710,6724 4835,6477 4585,6477 Z"/>
 <path fill="rgb(255,211,32)" stroke="none" d="M 5876,5921 L 6001,6168 6126,5921 5876,5921 Z"/>
 <path fill="none" stroke="rgb(255,211,32)" stroke-linejoin="round" d="M 5876,5921 L 6001,6168 6126,5921 5876,5921 Z"/>
 <path fill="rgb(255,211,32)" stroke="none" d="M 7166,5861 L 7291,6107 7416,5861 7166,5861 Z"/>
 <path fill="none" stroke="rgb(255,211,32)" stroke-linejoin="round" d="M 7166,5861 L 7291,6107 7416,5861 7166,5861 Z"/>
 <path fill="rgb(255,211,32)" stroke="none" d="M 8457,5203 L 8582,5450 8707,5203 8457,5203 Z"/>
 <path fill="none" stroke="rgb(255,211,32)" stroke-linejoin="round" d="M 8457,5203 L 8582,5450 8707,5203 8457,5203 Z"/>
 <path fill="rgb(255,211,32)" stroke="none" d="M 9746,5262 L 9871,5509 9996,5262 9746,5262 Z"/>
 <path fill="none" stroke="rgb(255,211,32)" stroke-linejoin="round" d="M 9746,5262 L 9871,5509 9996,5262 9746,5262 Z"/>
 <path fill="rgb(255,211,32)" stroke="none" d="M 11037,5297 L 11162,5543 11287,5297 11037,5297 Z"/>
 <path fill="none" stroke="rgb(255,211,32)" stroke-linejoin="round" d="M 11037,5297 L 11162,5543 11287,5297 11037,5297 Z"/>
 <path fill="none" stroke="rgb(87,157,28)" stroke-width="80" stroke-linejoin="round" d="M 2130,7857 L 3420,7644 4710,7335 6001,7370 7291,7395 8582,7267 9871,7498 11162,7386"/>
 <path fill="rgb(87,157,28)" stroke="none" d="M 2005,7980 L 2255,7980 2130,7733 2005,7980 Z"/>
 <path fill="none" stroke="rgb(87,157,28)" stroke-linejoin="round" d="M 2005,7980 L 2255,7980 2130,7733 2005,7980 Z"/>
 <path fill="rgb(87,157,28)" stroke="none" d="M 3295,7767 L 3545,7767 3420,7520 3295,7767 Z"/>
 <path fill="none" stroke="rgb(87,157,28)" stroke-linejoin="round" d="M 3295,7767 L 3545,7767 3420,7520 3295,7767 Z"/>
 <path fill="rgb(87,157,28)" stroke="none" d="M 4585,7458 L 4835,7458 4710,7212 4585,7458 Z"/>
 <path fill="none" stroke="rgb(87,157,28)" stroke-linejoin="round" d="M 4585,7458 L 4835,7458 4710,7212 4585,7458 Z"/>
 <path fill="rgb(87,157,28)" stroke="none" d="M 5876,7493 L 6126,7493 6001,7246 5876,7493 Z"/>
 <path fill="none" stroke="rgb(87,157,28)" stroke-linejoin="round" d="M 5876,7493 L 6126,7493 6001,7246 5876,7493 Z"/>
 <path fill="rgb(87,157,28)" stroke="none" d="M 7166,7518 L 7416,7518 7291,7272 7166,7518 Z"/>
 <path fill="none" stroke="rgb(87,157,28)" stroke-linejoin="round" d="M 7166,7518 L 7416,7518 7291,7272 7166,7518 Z"/>
 <path fill="rgb(87,157,28)" stroke="none" d="M 8457,7390 L 8707,7390 8582,7144 8457,7390 Z"/>
 <path fill="none" stroke="rgb(87,157,28)" stroke-linejoin="round" d="M 8457,7390 L 8707,7390 8582,7144 8457,7390 Z"/>
 <path fill="rgb(87,157,28)" stroke="none" d="M 9746,7621 L 9996,7621 9871,7374 9746,7621 Z"/>
 <path fill="none" stroke="rgb(87,157,28)" stroke-linejoin="round" d="M 9746,7621 L 9996,7621 9871,7374 9746,7621 Z"/>
 <path fill="rgb(87,157,28)" stroke="none" d="M 11037,7510 L 11287,7510 11162,7263 11037,7510 Z"/>
 <path fill="none" stroke="rgb(87,157,28)" stroke-linejoin="round" d="M 11037,7510 L 11287,7510 11162,7263 11037,7510 Z"/>
 <path fill="none" stroke="rgb(126,0,33)" stroke-width="80" stroke-linejoin="round" d="M 2130,7857 L 3420,8336 4710,8276 6001,8336 7291,8404 8582,8404 9871,8447 11162,8455"/>
 <path fill="rgb(126,0,33)" stroke="none" d="M 2005,7733 L 2005,7980 2255,7857 2005,7733 Z"/>
 <path fill="none" stroke="rgb(126,0,33)" stroke-linejoin="round" d="M 2005,7733 L 2005,7980 2255,7857 2005,7733 Z"/>
 <path fill="rgb(126,0,33)" stroke="none" d="M 3295,8213 L 3295,8459 3545,8336 3295,8213 Z"/>
 <path fill="none" stroke="rgb(126,0,33)" stroke-linejoin="round" d="M 3295,8213 L 3295,8459 3545,8336 3295,8213 Z"/>
 <path fill="rgb(126,0,33)" stroke="none" d="M 4585,8152 L 4585,8399 4835,8276 4585,8152 Z"/>
 <path fill="none" stroke="rgb(126,0,33)" stroke-linejoin="round" d="M 4585,8152 L 4585,8399 4835,8276 4585,8152 Z"/>
 <path fill="rgb(126,0,33)" stroke="none" d="M 5876,8213 L 5876,8459 6126,8336 5876,8213 Z"/>
 <path fill="none" stroke="rgb(126,0,33)" stroke-linejoin="round" d="M 5876,8213 L 5876,8459 6126,8336 5876,8213 Z"/>
 <path fill="rgb(126,0,33)" stroke="none" d="M 7166,8281 L 7166,8527 7416,8404 7166,8281 Z"/>
 <path fill="none" stroke="rgb(126,0,33)" stroke-linejoin="round" d="M 7166,8281 L 7166,8527 7416,8404 7166,8281 Z"/>
 <path fill="rgb(126,0,33)" stroke="none" d="M 8457,8281 L 8457,8527 8707,8404 8457,8281 Z"/>
 <path fill="none" stroke="rgb(126,0,33)" stroke-linejoin="round" d="M 8457,8281 L 8457,8527 8707,8404 8457,8281 Z"/>
 <path fill="rgb(126,0,33)" stroke="none" d="M 9746,8324 L 9746,8571 9996,8447 9746,8324 Z"/>
 <path fill="none" stroke="rgb(126,0,33)" stroke-linejoin="round" d="M 9746,8324 L 9746,8571 9996,8447 9746,8324 Z"/>
 <path fill="rgb(126,0,33)" stroke="none" d="M 11037,8332 L 11037,8578 11287,8455 11037,8332 Z"/>
 <path fill="none" stroke="rgb(126,0,33)" stroke-linejoin="round" d="M 11037,8332 L 11037,8578 11287,8455 11037,8332 Z"/>
 <path fill="none" stroke="rgb(153,204,255)" stroke-width="80" stroke-linejoin="round" d="M 2130,7857 L 3420,7002 4710,6147 6001,5292 7291,4437 8582,3582 9871,2727 11162,1872"/>
 <path fill="rgb(153,204,255)" stroke="none" d="M 2005,7857 L 2255,7980 2255,7733 2005,7857 Z"/>
 <path fill="none" stroke="rgb(153,204,255)" stroke-linejoin="round" d="M 2005,7857 L 2255,7980 2255,7733 2005,7857 Z"/>
 <path fill="rgb(153,204,255)" stroke="none" d="M 3295,7002 L 3545,7125 3545,6878 3295,7002 Z"/>
 <path fill="none" stroke="rgb(153,204,255)" stroke-linejoin="round" d="M 3295,7002 L 3545,7125 3545,6878 3295,7002 Z"/>
 <path fill="rgb(153,204,255)" stroke="none" d="M 4585,6147 L 4835,6270 4835,6024 4585,6147 Z"/>
 <path fill="none" stroke="rgb(153,204,255)" stroke-linejoin="round" d="M 4585,6147 L 4835,6270 4835,6024 4585,6147 Z"/>
 <path fill="rgb(153,204,255)" stroke="none" d="M 5876,5292 L 6126,5415 6126,5169 5876,5292 Z"/>
 <path fill="none" stroke="rgb(153,204,255)" stroke-linejoin="round" d="M 5876,5292 L 6126,5415 6126,5169 5876,5292 Z"/>
 <path fill="rgb(153,204,255)" stroke="none" d="M 7166,4437 L 7416,4560 7416,4314 7166,4437 Z"/>
 <path fill="none" stroke="rgb(153,204,255)" stroke-linejoin="round" d="M 7166,4437 L 7416,4560 7416,4314 7166,4437 Z"/>
 <path fill="rgb(153,204,255)" stroke="none" d="M 8457,3582 L 8707,3705 8707,3459 8457,3582 Z"/>
 <path fill="none" stroke="rgb(153,204,255)" stroke-linejoin="round" d="M 8457,3582 L 8707,3705 8707,3459 8457,3582 Z"/>
 <path fill="rgb(153,204,255)" stroke="none" d="M 9746,2727 L 9996,2850 9996,2604 9746,2727 Z"/>
 <path fill="none" stroke="rgb(153,204,255)" stroke-linejoin="round" d="M 9746,2727 L 9996,2850 9996,2604 9746,2727 Z"/>
 <path fill="rgb(153,204,255)" stroke="none" d="M 11037,1872 L 11287,1996 11287,1749 11037,1872 Z"/>
 <path fill="none" stroke="rgb(153,204,255)" stroke-linejoin="round" d="M 11037,1872 L 11287,1996 11287,1749 11037,1872 Z"/>
 <text class="SVGTextShape"><tspan class="TextParagraph" font-family="Times LT Std" font-size="423px" font-weight="400"><tspan class="TextPosition" x="2011" y="9403"><tspan font-size="417px" fill="rgb(0,0,0)" stroke="none" style="white-space: pre">1</tspan></tspan></tspan></text>
 <text class="SVGTextShape"><tspan class="TextParagraph" font-family="Times LT Std" font-size="423px" font-weight="400"><tspan class="TextPosition" x="3301" y="9403"><tspan font-size="417px" fill="rgb(0,0,0)" stroke="none" style="white-space: pre">2</tspan></tspan></tspan></text>
 <text class="SVGTextShape"><tspan class="TextParagraph" font-family="Times LT Std" font-size="423px" font-weight="400"><tspan class="TextPosition" x="4591" y="9403"><tspan font-size="417px" fill="rgb(0,0,0)" stroke="none" style="white-space: pre">3</tspan></tspan></tspan></text>
 <text class="SVGTextShape"><tspan class="TextParagraph" font-family="Times LT Std" font-size="423px" font-weight="400"><tspan class="TextPosition" x="5882" y="9403"><tspan font-size="417px" fill="rgb(0,0,0)" stroke="none" style="white-space: pre">4</tspan></tspan></tspan></text>
 <text class="SVGTextShape"><tspan class="TextParagraph" font-family="Times LT Std" font-size="423px" font-weight="400"><tspan class="TextPosition" x="7172" y="9403"><tspan font-size="417px" fill="rgb(0,0,0)" stroke="none" style="white-space: pre">5</tspan></tspan></tspan></text>
 <text class="SVGTextShape"><tspan class="TextParagraph" font-family="Times LT Std" font-size="423px" font-weight="400"><tspan class="TextPosition" x="8463" y="9403"><tspan font-size="417px" fill="rgb(0,0,0)" stroke="none" style="white-space: pre">6</tspan></tspan></tspan></text>
 <text class="SVGTextShape"><tspan class="TextParagraph" font-family="Times LT Std" font-size="423px" font-weight="400"><tspan class="TextPosition" x="9752" y="9403"><tspan font-size="417px" fill="rgb(0,0,0)" stroke="none" style="white-space: pre">7</tspan></tspan></tspan></text>
 <text class="SVGTextShape"><tspan class="TextParagraph" font-family="Times LT Std" font-size="423px" font-weight="400"><tspan class="TextPosition" x="11043" y="9403"><tspan font-size="417px" fill="rgb(0,0,0)" stroke="none" style="white-space: pre">8</tspan></tspan></tspan></text>
 <text class="SVGTextShape"><tspan class="TextParagraph" font-family="Times LT Std" font-size="423px" font-weight="400"><tspan class="TextPosition" x="1642" y="8869"><tspan font-size="417px" fill="rgb(0,0,0)" stroke="none" style="white-space: pre">0</tspan></tspan></tspan></text>
 <text class="SVGTextShape"><tspan class="TextParagraph" font-family="Times LT Std" font-size="423px" font-weight="400"><tspan class="TextPosition" x="1642" y="8014"><tspan font-size="417px" fill="rgb(0,0,0)" stroke="none" style="white-space: pre">1</tspan></tspan></tspan></text>
 <text class="SVGTextShape"><tspan class="TextParagraph" font-family="Times LT Std" font-size="423px" font-weight="400"><tspan class="TextPosition" x="1642" y="7159"><tspan font-size="417px" fill="rgb(0,0,0)" stroke="none" style="white-space: pre">2</tspan></tspan></tspan></text>
 <text class="SVGTextShape"><tspan class="TextParagraph" font-family="Times LT Std" font-size="423px" font-weight="400"><tspan class="TextPosition" x="1642" y="6304"><tspan font-size="417px" fill="rgb(0,0,0)" stroke="none" style="white-space: pre">3</tspan></tspan></tspan></text>
 <text class="SVGTextShape"><tspan class="TextParagraph" font-family="Times LT Std" font-size="423px" font-weight="400"><tspan class="TextPosition" x="1642" y="5449"><tspan font-size="417px" fill="rgb(0,0,0)" stroke="none" style="white-space: pre">4</tspan></tspan></tspan></text>
 <text class="SVGTextShape"><tspan class="TextParagraph" font-family="Times LT Std" font-size="423px" font-weight="400"><tspan class="TextPosition" x="1642" y="4594"><tspan font-size="417px" fill="rgb(0,0,0)" stroke="none" style="white-space: pre">5</tspan></tspan></tspan></text>
 <text class="SVGTextShape"><tspan class="TextParagraph" font-family="Times LT Std" font-size="423px" font-weight="400"><tspan class="TextPosition" x="1642" y="3739"><tspan font-size="417px" fill="rgb(0,0,0)" stroke="none" style="white-space: pre">6</tspan></tspan></tspan></text>
 <text class="SVGTextShape"><tspan class="TextParagraph" font-family="Times LT Std" font-size="423px" font-weight="400"><tspan class="TextPosition" x="1642" y="2884"><tspan font-size="417px" fill="rgb(0,0,0)" stroke="none" style="white-space: pre">7</tspan></tspan></tspan></text>
 <text class="SVGTextShape"><tspan class="TextParagraph" font-family="Times LT Std" font-size="423px" font-weight="400"><tspan class="TextPosition" x="1642" y="2029"><tspan font-size="417px" fill="rgb(0,0,0)" stroke="none" style="white-space: pre">8</tspan></tspan></tspan></text>
 <text class="SVGTextShape"><tspan class="TextParagraph" font-family="Times LT Std" font-size="564px" font-weight="400"><tspan class="TextPosition" x="4331" y="1059"><tspan font-size="556px" fill="rgb(0,0,0)" stroke="none" style="white-space: pre">Parallel benchmark: parallel speedup</tspan></tspan></tspan></text>
 <path fill="none" stroke="rgb(255,128,0)" stroke-width="80" stroke-linejoin="round" d="M 11748,3981 L 12548,3981"/>
 <path fill="rgb(255,128,0)" stroke="none" d="M 12021,3856 L 12021,4107 12275,4107 12275,3856 12021,3856 Z"/>
 <path fill="none" stroke="rgb(255,128,0)" stroke-linejoin="round" d="M 12021,3856 L 12021,4107 12275,4107 12275,3856 12021,3856 Z"/>
 <path fill="none" stroke="rgb(255,66,14)" stroke-width="80" stroke-linejoin="round" d="M 11748,4647 L 12548,4647"/>
 <path fill="rgb(255,66,14)" stroke="none" d="M 12021,4647 L 12148,4772 12275,4647 12148,4522 12021,4647 Z"/>
 <path fill="none" stroke="rgb(255,66,14)" stroke-linejoin="round" d="M 12021,4647 L 12148,4772 12275,4647 12148,4522 12021,4647 Z"/>
 <path fill="none" stroke="rgb(255,211,32)" stroke-width="80" stroke-linejoin="round" d="M 11748,5313 L 12548,5313"/>
 <path fill="rgb(255,211,32)" stroke="none" d="M 12021,5187 L 12148,5438 12275,5187 12021,5187 Z"/>
 <path fill="none" stroke="rgb(255,211,32)" stroke-linejoin="round" d="M 12021,5187 L 12148,5438 12275,5187 12021,5187 Z"/>
 <path fill="none" stroke="rgb(87,157,28)" stroke-width="80" stroke-linejoin="round" d="M 11748,5978 L 12548,5978"/>
 <path fill="rgb(87,157,28)" stroke="none" d="M 12021,6103 L 12275,6103 12148,5853 12021,6103 Z"/>
 <path fill="none" stroke="rgb(87,157,28)" stroke-linejoin="round" d="M 12021,6103 L 12275,6103 12148,5853 12021,6103 Z"/>
 <path fill="none" stroke="rgb(126,0,33)" stroke-width="80" stroke-linejoin="round" d="M 11748,6644 L 12548,6644"/>
 <path fill="rgb(126,0,33)" stroke="none" d="M 12021,6519 L 12021,6769 12275,6644 12021,6519 Z"/>
 <path fill="none" stroke="rgb(126,0,33)" stroke-linejoin="round" d="M 12021,6519 L 12021,6769 12275,6644 12021,6519 Z"/>
 <path fill="none" stroke="rgb(153,204,255)" stroke-width="80" stroke-linejoin="round" d="M 11748,7309 L 12548,7309"/>
 <path fill="rgb(153,204,255)" stroke="none" d="M 12021,7309 L 12275,7435 12275,7184 12021,7309 Z"/>
 <path fill="none" stroke="rgb(153,204,255)" stroke-linejoin="round" d="M 12021,7309 L 12275,7435 12275,7184 12021,7309 Z"/>
 <text class="SVGTextShape"><tspan class="TextParagraph" font-family="Times LT Std" font-size="423px" font-weight="400"><tspan class="TextPosition" x="12648" y="4138"><tspan font-size="417px" fill="rgb(0,0,0)" stroke="none" style="white-space: pre">Ocaml ref (native)</tspan></tspan></tspan></text>
 <text class="SVGTextShape"><tspan class="TextParagraph" font-family="Times LT Std" font-size="423px" font-weight="400"><tspan class="TextPosition" x="12648" y="4804"><tspan font-size="417px" fill="rgb(0,0,0)" stroke="none" style="white-space: pre">Boxroot</tspan></tspan></tspan></text>
 <text class="SVGTextShape"><tspan class="TextParagraph" font-family="Times LT Std" font-size="423px" font-weight="400"><tspan class="TextPosition" x="12648" y="5470"><tspan font-size="417px" fill="rgb(0,0,0)" stroke="none" style="white-space: pre">Ocaml ref (via C)</tspan></tspan></tspan></text>
 <text class="SVGTextShape"><tspan class="TextParagraph" font-family="Times LT Std" font-size="423px" font-weight="400"><tspan class="TextPosition" x="12648" y="6135"><tspan font-size="417px" fill="rgb(0,0,0)" stroke="none" style="white-space: pre">Global roots, lock-free</tspan></tspan></tspan></text>
 <text class="SVGTextShape"><tspan class="TextParagraph" font-family="Times LT Std" font-size="423px" font-weight="400"><tspan class="TextPosition" x="12648" y="6801"><tspan font-size="417px" fill="rgb(0,0,0)" stroke="none" style="white-space: pre">Global roots, global mutex</tspan></tspan></tspan></text>
 <text class="SVGTextShape"><tspan class="TextParagraph" font-family="Times LT Std" font-size="423px" font-weight="400"><tspan class="TextPosition" x="12648" y="7466"><tspan font-size="417px" fill="rgb(0,0,0)" stroke="none" style="white-space: pre">Ideal speedup</tspan></tspan></tspan></text>
 <text class="SVGTextShape"><tspan class="TextParagraph" font-family="Times LT Std" font-size="423px" font-weight="400"><tspan class="TextPosition" x="5178" y="9764"><tspan font-size="417px" fill="rgb(0,0,0)" stroke="none" style="white-space: pre">number of domains</tspan></tspan></tspan></text>
 <text class="SVGTextShape" transform="rotate(-90 -32804 -72196)"><tspan class="TextParagraph" font-family="Times LT Std" font-size="423px" font-weight="400"><tspan class="TextPosition" x="1015" y="7202"><tspan font-size="417px" fill="rgb(0,0,0)" stroke="none" style="white-space: pre">parallel speedup</tspan></tspan></tspan></text>
</svg>